{
    "name": "View",
    "rootNamespace": "",
    "references": [
        "UniRx",
        "Unity.XR.ARFoundation",
        "Unity.XR.ARSubsystems",
        "MatchingGame.Common",
        "PhotonUnityNetworking",
        "PhotonRealtime",
        "Model"
    ],
    "includePlatforms": [
        "Android",
        "Editor",
        "iOS",
        "macOSStandalone",
        "WSA",
        "WindowsStandalone64"
    ],
    "excludePlatforms": [],
    "allowUnsafeCode": false,
    "overrideReferences": false,
    "precompiledReferences": [],
    "autoReferenced": true,
    "defineConstraints": [],
    "versionDefines": [],
    "noEngineReferences": false
}