{
    "name": "Model",
    "rootNamespace": "",
    "references": [
        "GUID:5d6191858f9eec04a931738cbab12e6d"
    ],
    "includePlatforms": [
        "Android",
        "Editor",
        "iOS",
        "macOSStandalone",
        "WSA",
        "WindowsStandalone64"
    ],
    "excludePlatforms": [],
    "allowUnsafeCode": false,
    "overrideReferences": false,
    "precompiledReferences": [],
    "autoReferenced": true,
    "defineConstraints": [],
    "versionDefines": [],
    "noEngineReferences": false
}